{
    "name": "PlayerActions",
    "maps": [
        {
            "name": "PlayerControls",
            "id": "8f43e7c1-9d38-4098-b690-4cf9d27fb800",
            "actions": [
                {
                    "name": "Move",
                    "type": "Value",
                    "id": "06dc095e-3cd5-490f-961f-8e1447d6f69c",
                    "expectedControlType": "Vector2",
                    "processors": "",
                    "interactions": ""
                },
                {
                    "name": "FireStart",
                    "type": "Button",
                    "id": "fdbd9e69-083f-4f1a-9a69-bae6dc1359ab",
                    "expectedControlType": "",
                    "processors": "",
                    "interactions": "Press(pressPoint=0.9)"
                },
                {
                    "name": "AltFireStart",
                    "type": "Button",
                    "id": "ff430ac1-6436-4403-ab5a-25924e5a4002",
                    "expectedControlType": "",
                    "processors": "",
                    "interactions": "Press"
                },
                {
                    "name": "FireEnd",
                    "type": "Button",
                    "id": "5cbc2f1d-8ab4-450f-aa52-e4528ac6ba7b",
                    "expectedControlType": "",
                    "processors": "",
                    "interactions": "Press(behavior=1)"
                },
                {
                    "name": "AltFireEnd",
                    "type": "Button",
                    "id": "d8591962-b28d-4e28-aaa1-afc1c50fc384",
                    "expectedControlType": "",
                    "processors": "",
                    "interactions": "Press(behavior=1)"
                },
                {
                    "name": "BoardMech",
                    "type": "Button",
                    "id": "a88e8064-acb9-4a20-a622-7816320a6f79",
                    "expectedControlType": "",
                    "processors": "",
                    "interactions": "Press"
                },
                {
                    "name": "MousePosition",
                    "type": "PassThrough",
                    "id": "776c113f-31eb-4e00-9482-a7c917a22262",
                    "expectedControlType": "Vector2",
                    "processors": "",
                    "interactions": ""
                },
                {
                    "name": "StickAim",
                    "type": "PassThrough",
                    "id": "07f8de2e-5e1c-480f-8aee-401377985be2",
                    "expectedControlType": "Vector2",
                    "processors": "",
                    "interactions": ""
                }
            ],
            "bindings": [
                {
                    "name": "WASD",
                    "id": "67bb2796-1e84-438d-aea7-4c6552819ae1",
                    "path": "2DVector",
                    "interactions": "",
                    "processors": "",
                    "groups": "",
                    "action": "Move",
                    "isComposite": true,
                    "isPartOfComposite": false
                },
                {
                    "name": "up",
                    "id": "f8697314-47a5-4fe2-8462-996a50a98b23",
                    "path": "<Keyboard>/w",
                    "interactions": "",
                    "processors": "",
                    "groups": "",
                    "action": "Move",
                    "isComposite": false,
                    "isPartOfComposite": true
                },
                {
                    "name": "down",
                    "id": "d337bce9-e9aa-47b5-83d3-7f70ade821f2",
                    "path": "<Keyboard>/s",
                    "interactions": "",
                    "processors": "",
                    "groups": "",
                    "action": "Move",
                    "isComposite": false,
                    "isPartOfComposite": true
                },
                {
                    "name": "left",
                    "id": "7b3c1e1f-25c3-4f6d-8836-b714a9c7e5c6",
                    "path": "<Keyboard>/a",
                    "interactions": "",
                    "processors": "",
                    "groups": "",
                    "action": "Move",
                    "isComposite": false,
                    "isPartOfComposite": true
                },
                {
                    "name": "right",
                    "id": "cb57c1ef-1fe5-4542-a987-7c5e2df12f82",
                    "path": "<Keyboard>/d",
                    "interactions": "",
                    "processors": "",
                    "groups": "",
                    "action": "Move",
                    "isComposite": false,
                    "isPartOfComposite": true
                },
                {
                    "name": "",
                    "id": "14b415a3-686a-47ec-8659-97dc8267ed4a",
                    "path": "<Gamepad>/leftStick",
                    "interactions": "",
                    "processors": "",
                    "groups": "",
                    "action": "Move",
                    "isComposite": false,
                    "isPartOfComposite": false
                },
                {
                    "name": "",
                    "id": "14665742-2664-4663-a760-b878e361e538",
                    "path": "<Mouse>/leftButton",
                    "interactions": "",
                    "processors": "",
                    "groups": "",
                    "action": "FireStart",
                    "isComposite": false,
                    "isPartOfComposite": false
                },
                {
                    "name": "",
                    "id": "645ad92d-3ab0-4caa-bbe0-a537bb01aa16",
                    "path": "<Gamepad>/rightTrigger",
                    "interactions": "",
                    "processors": "",
                    "groups": "",
                    "action": "FireStart",
                    "isComposite": false,
                    "isPartOfComposite": false
                },
                {
                    "name": "",
                    "id": "63e52fa4-9abc-458f-84e9-28785d02aca0",
                    "path": "<Mouse>/rightButton",
                    "interactions": "",
                    "processors": "",
                    "groups": "",
                    "action": "AltFireStart",
                    "isComposite": false,
                    "isPartOfComposite": false
                },
                {
                    "name": "",
                    "id": "ff284151-c557-45e7-b8d1-e21c35b6d717",
                    "path": "<Gamepad>/leftTrigger",
                    "interactions": "",
                    "processors": "",
                    "groups": "",
                    "action": "AltFireStart",
                    "isComposite": false,
                    "isPartOfComposite": false
                },
                {
                    "name": "",
                    "id": "0f3f483e-7b1a-4c77-a805-a0a429d1c504",
                    "path": "<Mouse>/leftButton",
                    "interactions": "",
                    "processors": "",
                    "groups": "",
                    "action": "FireEnd",
                    "isComposite": false,
                    "isPartOfComposite": false
                },
                {
                    "name": "",
                    "id": "84842163-ac5b-49a7-8d96-bee7cbe0b067",
                    "path": "<Gamepad>/rightTrigger",
                    "interactions": "",
                    "processors": "",
                    "groups": "",
                    "action": "FireEnd",
                    "isComposite": false,
                    "isPartOfComposite": false
                },
                {
                    "name": "",
                    "id": "938ad5b5-a106-44de-8d2b-11e80c44f52f",
                    "path": "<Mouse>/rightButton",
                    "interactions": "",
                    "processors": "",
                    "groups": "",
                    "action": "AltFireEnd",
                    "isComposite": false,
                    "isPartOfComposite": false
                },
                {
                    "name": "",
                    "id": "b5c62583-4495-4fb9-885a-4d5a905a599e",
                    "path": "<Gamepad>/leftTrigger",
                    "interactions": "",
                    "processors": "",
                    "groups": "",
                    "action": "AltFireEnd",
                    "isComposite": false,
                    "isPartOfComposite": false
                },
                {
                    "name": "",
                    "id": "371a5794-17d6-401e-8478-6f7360a6bd48",
                    "path": "<Mouse>/middleButton",
                    "interactions": "",
                    "processors": "",
                    "groups": "",
                    "action": "BoardMech",
                    "isComposite": false,
                    "isPartOfComposite": false
                },
                {
                    "name": "",
                    "id": "e29f525d-4082-4b6a-98d1-0db36de5aafa",
                    "path": "<XInputController>/leftTrigger",
                    "interactions": "",
                    "processors": "",
                    "groups": "",
                    "action": "BoardMech",
                    "isComposite": false,
                    "isPartOfComposite": false
                },
                {
                    "name": "",
                    "id": "6b1c6d2c-8140-4c28-8467-b71203690b12",
                    "path": "<Keyboard>/space",
                    "interactions": "",
                    "processors": "",
                    "groups": "",
                    "action": "BoardMech",
                    "isComposite": false,
                    "isPartOfComposite": false
                },
                {
                    "name": "",
                    "id": "bd724373-5884-4890-8efe-c24106304695",
                    "path": "<Mouse>/position",
                    "interactions": "",
                    "processors": "",
                    "groups": "",
                    "action": "MousePosition",
                    "isComposite": false,
                    "isPartOfComposite": false
                },
                {
                    "name": "",
                    "id": "b338550a-98a7-4970-b1ef-42a8801ab781",
                    "path": "<Gamepad>/rightStick",
                    "interactions": "",
                    "processors": "",
                    "groups": "",
                    "action": "StickAim",
                    "isComposite": false,
                    "isPartOfComposite": false
                }
            ]
        },
        {
            "name": "MechControls",
            "id": "7a90d35b-24ab-4d08-bc60-74e8c430cf30",
            "actions": [
                {
                    "name": "Move",
                    "type": "Value",
                    "id": "5b965dc4-be14-4ef7-988d-8fd3c8d6b54f",
                    "expectedControlType": "Vector2",
                    "processors": "",
                    "interactions": ""
                },
                {
                    "name": "FireStart",
                    "type": "Button",
                    "id": "0964cd2c-797e-4364-bc88-993ba1146ba4",
                    "expectedControlType": "",
                    "processors": "",
                    "interactions": "Press(pressPoint=0.9)"
                },
                {
                    "name": "AltFireStart",
                    "type": "Button",
                    "id": "9e0673f8-96cf-4a4f-aa1d-3e727af4e5f3",
                    "expectedControlType": "",
                    "processors": "",
                    "interactions": "Press"
                },
                {
                    "name": "FireEnd",
                    "type": "Button",
                    "id": "8ca7ff20-dfa8-455e-8751-e40b1db4ade9",
                    "expectedControlType": "",
                    "processors": "",
                    "interactions": "Press(behavior=1)"
                },
                {
                    "name": "AltFireEnd",
                    "type": "Button",
                    "id": "c87773eb-7382-40df-8831-8a9f1a7f4cc7",
                    "expectedControlType": "",
                    "processors": "",
                    "interactions": "Press(behavior=1)"
                },
                {
                    "name": "BailOut",
                    "type": "Button",
                    "id": "9abf3f08-b608-474e-b526-70b8b9f88f76",
                    "expectedControlType": "",
                    "processors": "",
                    "interactions": "Press"
                },
                {
                    "name": "MousePosition",
                    "type": "Value",
                    "id": "042e2f02-bb6c-4f1c-9d24-b9141ce5d61c",
                    "expectedControlType": "Vector2",
                    "processors": "",
                    "interactions": ""
                },
                {
                    "name": "StickAim",
                    "type": "PassThrough",
                    "id": "27877630-9163-4251-a7c5-f5c35d6301d9",
                    "expectedControlType": "Vector2",
                    "processors": "",
                    "interactions": ""
                }
            ],
            "bindings": [
                {
                    "name": "WASD",
                    "id": "6c8266d5-4845-4143-b146-344c431eb86a",
                    "path": "2DVector",
                    "interactions": "",
                    "processors": "",
                    "groups": "",
                    "action": "Move",
                    "isComposite": true,
                    "isPartOfComposite": false
                },
                {
                    "name": "up",
                    "id": "e7861b85-468b-4696-b51b-8609c9add610",
                    "path": "<Keyboard>/w",
                    "interactions": "",
                    "processors": "",
                    "groups": "",
                    "action": "Move",
                    "isComposite": false,
                    "isPartOfComposite": true
                },
                {
                    "name": "down",
                    "id": "7f532b53-9648-4bf1-8ad0-19d93b3aa28e",
                    "path": "<Keyboard>/s",
                    "interactions": "",
                    "processors": "",
                    "groups": "",
                    "action": "Move",
                    "isComposite": false,
                    "isPartOfComposite": true
                },
                {
                    "name": "left",
                    "id": "c052a76e-c47d-4244-8a1c-e62049bb438c",
                    "path": "<Keyboard>/a",
                    "interactions": "",
                    "processors": "",
                    "groups": "",
                    "action": "Move",
                    "isComposite": false,
                    "isPartOfComposite": true
                },
                {
                    "name": "right",
                    "id": "0f9cb7dc-1f9d-48d7-897e-ce94acba1d52",
                    "path": "<Keyboard>/d",
                    "interactions": "",
                    "processors": "",
                    "groups": "",
                    "action": "Move",
                    "isComposite": false,
                    "isPartOfComposite": true
                },
                {
                    "name": "",
                    "id": "ef434343-a26f-4019-a66b-88d14d01f663",
                    "path": "<Gamepad>/leftStick",
                    "interactions": "",
                    "processors": "",
                    "groups": "",
                    "action": "Move",
                    "isComposite": false,
                    "isPartOfComposite": false
                },
                {
                    "name": "",
                    "id": "753cac9c-b03d-4384-a42b-454844fbf25e",
                    "path": "<Mouse>/leftButton",
                    "interactions": "",
                    "processors": "",
                    "groups": "",
                    "action": "FireStart",
                    "isComposite": false,
                    "isPartOfComposite": false
                },
                {
                    "name": "",
                    "id": "58a849c8-164a-4a52-bedb-a6750850eb3a",
                    "path": "<Gamepad>/rightTrigger",
                    "interactions": "",
                    "processors": "",
                    "groups": "",
                    "action": "FireStart",
                    "isComposite": false,
                    "isPartOfComposite": false
                },
                {
                    "name": "",
                    "id": "3f2eee9e-1009-4db3-a3f2-1ec1487c53c1",
                    "path": "<Mouse>/rightButton",
                    "interactions": "",
                    "processors": "",
                    "groups": "",
                    "action": "AltFireStart",
                    "isComposite": false,
                    "isPartOfComposite": false
                },
                {
                    "name": "",
                    "id": "041ece8f-20b7-4f6c-932d-1c52a4271b7b",
                    "path": "<Gamepad>/leftTrigger",
                    "interactions": "",
                    "processors": "",
                    "groups": "",
                    "action": "AltFireStart",
                    "isComposite": false,
                    "isPartOfComposite": false
                },
                {
                    "name": "",
                    "id": "f4328abe-efd5-4f04-afae-d4c0a0e49513",
                    "path": "<Mouse>/leftButton",
                    "interactions": "",
                    "processors": "",
                    "groups": "",
                    "action": "FireEnd",
                    "isComposite": false,
                    "isPartOfComposite": false
                },
                {
                    "name": "",
                    "id": "d48b2f4f-c7d7-41f8-83fb-af9dfa377c59",
                    "path": "<Gamepad>/rightTrigger",
                    "interactions": "",
                    "processors": "",
                    "groups": "",
                    "action": "FireEnd",
                    "isComposite": false,
                    "isPartOfComposite": false
                },
                {
                    "name": "",
                    "id": "6555b48d-c749-4a9b-a606-74daa88b4064",
                    "path": "<Mouse>/rightButton",
                    "interactions": "",
                    "processors": "",
                    "groups": "",
                    "action": "AltFireEnd",
                    "isComposite": false,
                    "isPartOfComposite": false
                },
                {
                    "name": "",
                    "id": "70c2a1fc-dea9-4075-b6a3-4f88d0528e57",
                    "path": "<Gamepad>/leftTrigger",
                    "interactions": "",
                    "processors": "",
                    "groups": "",
                    "action": "AltFireEnd",
                    "isComposite": false,
                    "isPartOfComposite": false
                },
                {
                    "name": "",
                    "id": "c7fb1fd3-0a13-4965-96e5-95da79149680",
                    "path": "<Mouse>/middleButton",
                    "interactions": "",
                    "processors": "",
                    "groups": "",
                    "action": "BailOut",
                    "isComposite": false,
                    "isPartOfComposite": false
                },
                {
                    "name": "",
                    "id": "8311beb7-9021-4213-b64f-b8680a19371a",
                    "path": "<XInputController>/leftTrigger",
                    "interactions": "",
                    "processors": "",
                    "groups": "",
                    "action": "BailOut",
                    "isComposite": false,
                    "isPartOfComposite": false
                },
                {
                    "name": "",
                    "id": "59b0c0d2-55d3-49b2-adcb-0f475bf35cc7",
                    "path": "<Keyboard>/space",
                    "interactions": "",
                    "processors": "",
                    "groups": "",
                    "action": "BailOut",
                    "isComposite": false,
                    "isPartOfComposite": false
                },
                {
                    "name": "",
                    "id": "8b5524d9-176f-4fa2-a09b-fe59460e5f1f",
                    "path": "<Mouse>/position",
                    "interactions": "",
                    "processors": "",
                    "groups": "",
                    "action": "MousePosition",
                    "isComposite": false,
                    "isPartOfComposite": false
                },
                {
                    "name": "",
                    "id": "7d985d21-4a98-4ad2-a861-2e8181fe70e9",
                    "path": "<Gamepad>/rightStick",
                    "interactions": "",
                    "processors": "",
                    "groups": "",
                    "action": "StickAim",
                    "isComposite": false,
                    "isPartOfComposite": false
                }
            ]
        }
    ],
    "controlSchemes": []
}