[gd_scene load_steps=7 format=2]

[ext_resource path="res://TempArt/square-sprite.png" type="Texture" id=1]
[ext_resource path="res://Scripts/Classes/Player.gd" type="Script" id=2]
[ext_resource path="res://Scripts/Classes/VirtualAxis.gd" type="Script" id=3]
[ext_resource path="res://Scripts/Classes/Gun.gd" type="Script" id=4]
[ext_resource path="res://Scenes/Bullet.tscn" type="PackedScene" id=5]

[sub_resource type="RectangleShape2D" id=1]
extents = Vector2( 30.2134, 29.1929 )

[node name="Player" type="KinematicBody2D"]
script = ExtResource( 2 )
AxisPath = NodePath("VirtualAxis")
DefaultGunNode = NodePath("Gun")
BaseSpeed = 20.0
MaxHealth = 100

[node name="MainBody" type="Sprite" parent="."]
texture = ExtResource( 1 )

[node name="CollisionShape2D" type="CollisionShape2D" parent="."]
shape = SubResource( 1 )

[node name="VirtualAxis" type="Node" parent="."]
script = ExtResource( 3 )
UpAxisName = "control_up"
DownAxisName = "control_down"
LeftAxisName = "control_left"
RightAxisName = "control_right"

[node name="Gun" type="Node" parent="."]
script = ExtResource( 4 )
Bullet = ExtResource( 5 )
