%YAML 1.1
%TAG !u! tag:unity3d.com,2011:
--- !u!114 &11400000
MonoBehaviour:
  m_ObjectHideFlags: 0
  m_CorrespondingSourceObject: {fileID: 0}
  m_PrefabInstance: {fileID: 0}
  m_PrefabAsset: {fileID: 0}
  m_GameObject: {fileID: 0}
  m_Enabled: 1
  m_EditorHideFlags: 0
  m_Script: {fileID: 11500000, guid: 4ba98a17febe19b4285728292647b96c, type: 3}
  m_Name: MechFlare
  m_EditorClassIdentifier: 
  FlarePrefab: {fileID: 7474213196078505526, guid: 628383c778cb3704b8074376359d56e6,
    type: 3}
  MaxAmmo: 3
  SecondsPerCharge: 5
  FireCooldown: 0.5
  FlareUiPrefab: {fileID: 6294694334596482279, guid: 73b603933134e2b449b05ca1d3b4c810,
    type: 3}
  _targetLocation: {x: 0, y: 0, z: 0}
