%YAML 1.1
%TAG !u! tag:unity3d.com,2011:
--- !u!195 &-2529280072279389331
NavMeshAgent:
  m_ObjectHideFlags: 0
  m_CorrespondingSourceObject: {fileID: 0}
  m_PrefabInstance: {fileID: 0}
  m_PrefabAsset: {fileID: 0}
  m_GameObject: {fileID: 3538343786343135482}
  m_Enabled: 1
  m_AgentTypeID: 0
  m_Radius: 0.5
  m_Speed: 3.5
  m_Acceleration: 8
  avoidancePriority: 50
  m_AngularSpeed: 120
  m_StoppingDistance: 0
  m_AutoTraverseOffMeshLink: 1
  m_AutoBraking: 1
  m_AutoRepath: 1
  m_Height: 2
  m_BaseOffset: 1
  m_WalkableMask: 4294967295
  m_ObstacleAvoidanceType: 4
--- !u!114 &8062720092055371530
MonoBehaviour:
  m_ObjectHideFlags: 0
  m_CorrespondingSourceObject: {fileID: 0}
  m_PrefabInstance: {fileID: 0}
  m_PrefabAsset: {fileID: 0}
  m_GameObject: {fileID: 3538343786343135482}
  m_Enabled: 1
  m_EditorHideFlags: 0
  m_Script: {fileID: 11500000, guid: 730c529416c265e4b8fcec6686e0c8ed, type: 3}
  m_Name: 
  m_EditorClassIdentifier: 
--- !u!1001 &1795073055719280146
PrefabInstance:
  m_ObjectHideFlags: 0
  serializedVersion: 2
  m_Modification:
    m_TransformParent: {fileID: 0}
    m_Modifications:
    - target: {fileID: 3022998934885021416, guid: 63350a73fbcbdfb4b8b84cbba493d16d,
        type: 3}
      propertyPath: m_Name
      value: TrackingTarget
      objectReference: {fileID: 0}
    - target: {fileID: 4262821287876395157, guid: 63350a73fbcbdfb4b8b84cbba493d16d,
        type: 3}
      propertyPath: m_LocalPosition.x
      value: 420
      objectReference: {fileID: 0}
    - target: {fileID: 4262821287876395157, guid: 63350a73fbcbdfb4b8b84cbba493d16d,
        type: 3}
      propertyPath: m_LocalPosition.y
      value: 1
      objectReference: {fileID: 0}
    - target: {fileID: 4262821287876395157, guid: 63350a73fbcbdfb4b8b84cbba493d16d,
        type: 3}
      propertyPath: m_LocalPosition.z
      value: 350
      objectReference: {fileID: 0}
    - target: {fileID: 4262821287876395157, guid: 63350a73fbcbdfb4b8b84cbba493d16d,
        type: 3}
      propertyPath: m_LocalRotation.x
      value: 0
      objectReference: {fileID: 0}
    - target: {fileID: 4262821287876395157, guid: 63350a73fbcbdfb4b8b84cbba493d16d,
        type: 3}
      propertyPath: m_LocalRotation.y
      value: 0
      objectReference: {fileID: 0}
    - target: {fileID: 4262821287876395157, guid: 63350a73fbcbdfb4b8b84cbba493d16d,
        type: 3}
      propertyPath: m_LocalRotation.z
      value: 0
      objectReference: {fileID: 0}
    - target: {fileID: 4262821287876395157, guid: 63350a73fbcbdfb4b8b84cbba493d16d,
        type: 3}
      propertyPath: m_LocalRotation.w
      value: 1
      objectReference: {fileID: 0}
    - target: {fileID: 4262821287876395157, guid: 63350a73fbcbdfb4b8b84cbba493d16d,
        type: 3}
      propertyPath: m_RootOrder
      value: 0
      objectReference: {fileID: 0}
    - target: {fileID: 4262821287876395157, guid: 63350a73fbcbdfb4b8b84cbba493d16d,
        type: 3}
      propertyPath: m_LocalEulerAnglesHint.x
      value: 0
      objectReference: {fileID: 0}
    - target: {fileID: 4262821287876395157, guid: 63350a73fbcbdfb4b8b84cbba493d16d,
        type: 3}
      propertyPath: m_LocalEulerAnglesHint.y
      value: 0
      objectReference: {fileID: 0}
    - target: {fileID: 4262821287876395157, guid: 63350a73fbcbdfb4b8b84cbba493d16d,
        type: 3}
      propertyPath: m_LocalEulerAnglesHint.z
      value: 0
      objectReference: {fileID: 0}
    - target: {fileID: 5290591296379339337, guid: 63350a73fbcbdfb4b8b84cbba493d16d,
        type: 3}
      propertyPath: SpawnInitializeEvent.m_PersistentCalls.m_Calls.Array.size
      value: 1
      objectReference: {fileID: 0}
    - target: {fileID: 5290591296379339337, guid: 63350a73fbcbdfb4b8b84cbba493d16d,
        type: 3}
      propertyPath: _maxHealth
      value: 20
      objectReference: {fileID: 0}
    - target: {fileID: 5290591296379339337, guid: 63350a73fbcbdfb4b8b84cbba493d16d,
        type: 3}
      propertyPath: _armor
      value: 0
      objectReference: {fileID: 0}
    - target: {fileID: 5290591296379339337, guid: 63350a73fbcbdfb4b8b84cbba493d16d,
        type: 3}
      propertyPath: _contactDamage
      value: 2
      objectReference: {fileID: 0}
    - target: {fileID: 5290591296379339337, guid: 63350a73fbcbdfb4b8b84cbba493d16d,
        type: 3}
      propertyPath: SpawnInitializeEvent.m_PersistentCalls.m_Calls.Array.data[0].m_Mode
      value: 0
      objectReference: {fileID: 0}
    - target: {fileID: 5290591296379339337, guid: 63350a73fbcbdfb4b8b84cbba493d16d,
        type: 3}
      propertyPath: SpawnInitializeEvent.m_PersistentCalls.m_Calls.Array.data[0].m_CallState
      value: 2
      objectReference: {fileID: 0}
    - target: {fileID: 5290591296379339337, guid: 63350a73fbcbdfb4b8b84cbba493d16d,
        type: 3}
      propertyPath: SpawnInitializeEvent.m_PersistentCalls.m_Calls.Array.data[0].m_Target
      value: 
      objectReference: {fileID: 8062720092055371530}
    - target: {fileID: 5290591296379339337, guid: 63350a73fbcbdfb4b8b84cbba493d16d,
        type: 3}
      propertyPath: SpawnInitializeEvent.m_PersistentCalls.m_Calls.Array.data[0].m_MethodName
      value: OnInstanceSpawned
      objectReference: {fileID: 0}
    - target: {fileID: 5290591296379339337, guid: 63350a73fbcbdfb4b8b84cbba493d16d,
        type: 3}
      propertyPath: SpawnInitializeEvent.m_PersistentCalls.m_Calls.Array.data[0].m_Arguments.m_ObjectArgumentAssemblyTypeName
      value: UnityEngine.Object, UnityEngine
      objectReference: {fileID: 0}
    m_RemovedComponents: []
  m_SourcePrefab: {fileID: 100100000, guid: 63350a73fbcbdfb4b8b84cbba493d16d, type: 3}
--- !u!1 &3538343786343135482 stripped
GameObject:
  m_CorrespondingSourceObject: {fileID: 3022998934885021416, guid: 63350a73fbcbdfb4b8b84cbba493d16d,
    type: 3}
  m_PrefabInstance: {fileID: 1795073055719280146}
  m_PrefabAsset: {fileID: 0}
